{
"shop_catalog_image_size":"a:3:{s:5:\"width\";s:3:\"430\";s:6:\"height\";s:3:\"305\";s:4:\"crop\";i:1;}",
"shop_single_image_size":"a:3:{s:5:\"width\";s:3:\"820\";s:6:\"height\";s:3:\"500\";s:4:\"crop\";i:1;}",
"shop_thumbnail_image_size":"a:2:{s:5:\"width\";s:3:\"150\";s:6:\"height\";s:3:\"100\";s:4:\"crop\";i:1;}",
"sb_instagram_settings":"a:30:{s:15:\"sb_instagram_at\";s:51:\"4119591722.3a81a9f.dad83431cd944297b5ade2d84631231d\";s:20:\"sb_instagram_user_id\";s:10:\"4119591722\";s:30:\"sb_instagram_preserve_settings\";s:0:\"\";s:23:\"sb_instagram_ajax_theme\";s:0:\"\";s:18:\"sb_instagram_width\";i:100;s:23:\"sb_instagram_width_unit\";s:1:\"%\";s:28:\"sb_instagram_feed_width_resp\";s:0:\"\";s:19:\"sb_instagram_height\";s:0:\"\";s:16:\"sb_instagram_num\";i:6;s:24:\"sb_instagram_height_unit\";s:2:\"px\";s:17:\"sb_instagram_cols\";s:1:\"3\";s:27:\"sb_instagram_disable_mobile\";s:0:\"\";s:26:\"sb_instagram_image_padding\";i:5;s:31:\"sb_instagram_image_padding_unit\";s:2:\"px\";s:17:\"sb_instagram_sort\";s:4:\"none\";s:23:\"sb_instagram_background\";s:0:\"\";s:21:\"sb_instagram_show_btn\";s:2:\"on\";s:27:\"sb_instagram_btn_background\";s:0:\"\";s:27:\"sb_instagram_btn_text_color\";s:0:\"\";s:21:\"sb_instagram_btn_text\";s:12:\"Load More...\";s:22:\"sb_instagram_image_res\";s:4:\"auto\";s:24:\"sb_instagram_show_header\";s:0:\"\";s:25:\"sb_instagram_header_color\";s:0:\"\";s:28:\"sb_instagram_show_follow_btn\";s:0:\"\";s:33:\"sb_instagram_folow_btn_background\";s:0:\"\";s:34:\"sb_instagram_follow_btn_text_color\";s:0:\"\";s:28:\"sb_instagram_follow_btn_text\";s:19:\"Follow on Instagram\";s:23:\"sb_instagram_custom_css\";s:0:\"\";s:22:\"sb_instagram_custom_js\";s:0:\"\";s:28:\"sb_instagram_disable_awesome\";s:0:\"\";}",
"tax_meta_28":"a:5:{s:24:\"travelwp_tour_type_thumb\";a:2:{s:2:\"id\";s:3:\"220\";s:3:\"url\";s:80:\"wp-content\/uploads\/2016\/10\/brazil-south-america.jpg\";}s:19:\"phys_tour_type_icon\";s:19:\"flaticon-airplane-4\";s:19:\"phys_layout_content\";s:4:\"list\";s:26:\"phys_cate_heading_bg_color\";s:1:\"#\";s:28:\"phys_cate_heading_text_color\";s:1:\"#\";}",
"tax_meta_42":"a:6:{s:24:\"travelwp_tour_type_thumb\";a:2:{s:2:\"id\";s:3:\"218\";s:3:\"url\";s:84:\"wp-content\/uploads\/2016\/10\/25816508131_00e16429b8_o.jpg\";}s:19:\"phys_tour_type_icon\";s:15:\"flaticon-cart-1\";s:19:\"phys_layout_content\";s:4:\"grid\";s:26:\"phys_layout_content_column\";s:1:\"2\";s:26:\"phys_cate_heading_bg_color\";s:1:\"#\";s:28:\"phys_cate_heading_text_color\";s:1:\"#\";}",
"tax_meta_43":"a:8:{s:24:\"travelwp_tour_type_thumb\";a:2:{s:2:\"id\";s:3:\"217\";s:3:\"url\";s:84:\"wp-content\/uploads\/2016\/10\/25656857141_edcdf5e6e3_o.jpg\";}s:20:\"phys_tour_type_thumb\";a:2:{s:2:\"id\";s:3:\"220\";s:3:\"url\";s:80:\"wp-content\/uploads\/2016\/10\/brazil-south-america.jpg\";}s:19:\"phys_tour_type_icon\";s:20:\"flaticon-transport-2\";s:19:\"phys_layout_content\";s:4:\"grid\";s:26:\"phys_layout_content_column\";s:1:\"4\";s:11:\"phys_layout\";s:12:\"full-content\";s:26:\"phys_cate_heading_bg_color\";s:1:\"#\";s:28:\"phys_cate_heading_text_color\";s:1:\"#\";}",
"tax_meta_46":"a:4:{s:24:\"travelwp_tour_type_thumb\";a:2:{s:2:\"id\";s:3:\"216\";s:3:\"url\";s:84:\"wp-content\/uploads\/2016\/10\/24987002020_29d3944b4f_o.jpg\";}s:19:\"phys_tour_type_icon\";s:13:\"flaticon-sand\";s:26:\"phys_cate_heading_bg_color\";s:1:\"#\";s:28:\"phys_cate_heading_text_color\";s:1:\"#\";}",
"tax_meta_49":"a:7:{s:24:\"travelwp_tour_type_thumb\";a:2:{s:2:\"id\";s:3:\"219\";s:3:\"url\";s:84:\"wp-content\/uploads\/2016\/10\/26003147786_a04226cd2f_o.jpg\";}s:19:\"phys_tour_type_icon\";s:15:\"flaticon-island\";s:19:\"phys_layout_content\";s:4:\"grid\";s:26:\"phys_layout_content_column\";s:1:\"3\";s:11:\"phys_layout\";s:12:\"full-content\";s:26:\"phys_cate_heading_bg_color\";s:1:\"#\";s:28:\"phys_cate_heading_text_color\";s:1:\"#\";}",
"tax_meta_23":"a:6:{s:31:\"phys_destination_custom_heading\";s:6:\"custom\";s:26:\"phys_destination_top_image\";a:2:{s:2:\"id\";s:3:\"555\";s:3:\"url\";s:74:\"wp-content\/uploads\/2017\/03\/brazil.jpg\";}s:33:\"phys_destination_heading_bg_color\";s:1:\"#\";s:35:\"phys_destination_heading_text_color\";s:1:\"#\";s:20:\"phys_tour_type_thumb\";a:2:{s:2:\"id\";s:3:\"692\";s:3:\"url\";s:93:\"home-4\/wp-content\/uploads\/2017\/04\/brazil-destination.jpg\";}s:15:\"phys_text_color\";s:1:\"#\";}",
"tax_meta_24":"a:6:{s:31:\"phys_destination_custom_heading\";s:6:\"custom\";s:26:\"phys_destination_top_image\";a:2:{s:2:\"id\";s:3:\"556\";s:3:\"url\";s:74:\"wp-content\/uploads\/2017\/03\/canada.jpg\";}s:33:\"phys_destination_heading_bg_color\";s:1:\"#\";s:35:\"phys_destination_heading_text_color\";s:1:\"#\";s:20:\"phys_tour_type_thumb\";a:2:{s:2:\"id\";s:3:\"693\";s:3:\"url\";s:88:\"home-4\/wp-content\/uploads\/2017\/04\/ottawa-canada.jpg\";}s:15:\"phys_text_color\";s:1:\"#\";}",
"tax_meta_32":"a:5:{s:31:\"phys_destination_custom_heading\";s:6:\"custom\";s:26:\"phys_destination_top_image\";a:2:{s:2:\"id\";s:3:\"558\";s:3:\"url\";s:66:\"wp-content\/uploads\/2017\/03\/italia.jpg\";}s:33:\"phys_destination_heading_bg_color\";s:1:\"#\";s:35:\"phys_destination_heading_text_color\";s:1:\"#\";s:20:\"phys_tour_type_thumb\";a:2:{s:2:\"id\";s:3:\"217\";s:3:\"url\";s:84:\"wp-content\/uploads\/2016\/10\/25656857141_edcdf5e6e3_o.jpg\";}}",
"tax_meta_48":"a:6:{s:31:\"phys_destination_custom_heading\";s:6:\"custom\";s:26:\"phys_destination_top_image\";a:2:{s:2:\"id\";s:3:\"560\";s:3:\"url\";s:77:\"wp-content\/uploads\/2017\/03\/san_diego.jpg\";}s:33:\"phys_destination_heading_bg_color\";s:1:\"#\";s:35:\"phys_destination_heading_text_color\";s:1:\"#\";s:20:\"phys_tour_type_thumb\";a:2:{s:2:\"id\";s:3:\"695\";s:3:\"url\";s:95:\"home-4\/wp-content\/uploads\/2017\/04\/kennedy_space_center.jpg\";}s:15:\"phys_text_color\";s:1:\"#\";}",
"tax_meta_26":"a:6:{s:31:\"phys_destination_custom_heading\";s:6:\"custom\";s:26:\"phys_destination_top_image\";a:2:{s:2:\"id\";s:3:\"561\";s:3:\"url\";s:72:\"wp-content\/uploads\/2017\/03\/cuba.jpg\";}s:33:\"phys_destination_heading_bg_color\";s:1:\"#\";s:35:\"phys_destination_heading_text_color\";s:1:\"#\";s:20:\"phys_tour_type_thumb\";a:2:{s:2:\"id\";s:3:\"694\";s:3:\"url\";s:90:\"home-4\/wp-content\/uploads\/2017\/04\/cuba-old-havana.jpg\";}s:15:\"phys_text_color\";s:7:\"#ffffff\";}",
"tax_meta_41":"a:6:{s:31:\"phys_destination_custom_heading\";s:6:\"custom\";s:26:\"phys_destination_top_image\";a:2:{s:2:\"id\";s:3:\"559\";s:3:\"url\";s:77:\"wp-content\/uploads\/2017\/03\/philippin.jpg\";}s:33:\"phys_destination_heading_bg_color\";s:1:\"#\";s:35:\"phys_destination_heading_text_color\";s:1:\"#\";s:20:\"phys_tour_type_thumb\";a:2:{s:2:\"id\";s:3:\"696\";s:3:\"url\";s:100:\"home-4\/wp-content\/uploads\/2017\/04\/san_agustin_church_manila.jpg\";}s:15:\"phys_text_color\";s:1:\"#\";}"
}